module gitlab.com/bhabegger/graphql-example

go 1.21.1

require (
	github.com/99designs/gqlgen v0.17.44
	github.com/vektah/gqlparser/v2 v2.5.11
	github.com/yalp/jsonpath v0.0.0-20180802001716-5cc68e5049a0
)

require (
	github.com/agnivade/levenshtein v1.1.1 // indirect
	github.com/google/uuid v1.6.0 // indirect
	github.com/gorilla/websocket v1.5.0 // indirect
	github.com/hashicorp/golang-lru/v2 v2.0.7 // indirect
	github.com/mitchellh/mapstructure v1.5.0 // indirect
	github.com/sosodev/duration v1.2.0 // indirect
)
